<?xml version="1.0" encoding="iso-8859-1"?>
<!-- Generator: Adobe Illustrator 19.1.0, SVG Export Plug-In . SVG Version: 6.00 Build 0)  -->
<svg xmlns="http://www.w3.org/2000/svg" xmlns:xlink="http://www.w3.org/1999/xlink" version="1.1" id="Capa_1" x="0px" y="0px" viewBox="0 0 64 64" style="enable-background:new 0 0 64 64;" xml:space="preserve" width="512px" height="512px">
<g>
	<g>
		<polygon points="27.854,49.707 45,32.707 45,31.293 27.854,14.293 26.366,15.707 42.623,32 26.385,48.293   " fill="#EA005C"/>
		<path d="M31.999,64c0,0,0.001,0,0.002,0c8.548,0,16.583-3.33,22.627-9.373S64,40.547,63.999,31.999    c0-8.548-3.328-16.584-9.372-22.627C48.584,3.329,40.549,0,32.001,0C32,0,32,0,31.999,0C23.451,0,15.416,3.329,9.372,9.373    C3.329,15.417,0,23.453,0.001,32.001c0,8.548,3.328,16.584,9.372,22.627C15.416,60.671,23.451,64,31.999,64z M10.787,10.787    C16.452,5.121,23.986,2,32.001,2c0.001,0,0.001,0,0.002,0c8.012,0,15.545,3.121,21.211,8.786c5.666,5.666,8.786,13.2,8.785,21.213    c0,8.014-3.12,15.548-8.785,21.214S40.015,62,32.001,62h-0.002c-0.001,0-0.001,0-0.002,0c-8.012,0-15.545-3.121-21.211-8.786    C5.121,47.548,2,40.015,2.001,32.001C2,23.987,5.121,16.453,10.787,10.787z" fill="#EA005C"/>
	</g>
</g>
<g>
</g>
<g>
</g>
<g>
</g>
<g>
</g>
<g>
</g>
<g>
</g>
<g>
</g>
<g>
</g>
<g>
</g>
<g>
</g>
<g>
</g>
<g>
</g>
<g>
</g>
<g>
</g>
<g>
</g>
</svg>
